Canadian Births Time Series Analysis – My-blog
…
fc <- fit %>% forecast() 

Fits of additive and multiplicative HW models

Show the code

augment(fit)

# A tsibble: 768 x 6 [1M]
# Key:       .model [2]
   .model     ymdate births .fitted  .resid  .innov
   <chr>       <mth>  <dbl>   <dbl>   <dbl>   <dbl>
 1 additive 1991 Jan  32213  33606. -1393.  -1393. 
 2 additive 1991 Feb  30345  30936.  -591.   -591. 
 3 additive 1991 Mar  34869  33865.  1004.   1004. 
 4 additive 1991 Apr  35398  34303.  1095.   1095. 
 5 additive 1991 May  36371  36493.  -122.   -122. 
 6 additive 1991 Jun  34378  35478. -1100.  -1100. 
 7 additive 1991 Jul  35436  35931.  -495.   -495. 
 8 additive 1991 Aug  34421  34932.  -511.   -511. 
 9 additive 1991 Sep  34410  34465.   -54.5   -54.5
10 additive 1991 Oct  33092  33223.  -131.   -131. 
# ℹ 758 more rows
…
