R User-defined functions employing purrr – Andrew-blog
…
func_dots(df = tib_small, colB, colA) #Error : colB is in field 1 place. Can't sum a character vector

Warning: There were 50 warnings in `summarise()`.
The first warning was:
ℹ In argument: `mean = mean(colB, na.rm = T)`.
ℹ In group 1: `colA = -2.685066`.
Caused by warning in `mean.default()`:
! argument is not numeric or logical: returning NA
ℹ Run `dplyr::last_dplyr_warnings()` to see the 49 remaining warnings.

# A tibble: 50 × 2
     colA  mean
    <dbl> <dbl>
 1 -2.69     NA
 2 -2.14     NA
 3 -1.84     NA
 4 -1.39     NA
 5 -1.38     NA
 6 -1.08     NA
 7 -1.01     NA
 8 -0.938    NA
 9 -0.911    NA
10 -0.814    NA
# ℹ 40 more rows
…
# A tibble: 5 × 2
  colB     mean
  <chr>   <dbl>
1 a     -0.0311
2 b     -0.406 
3 c      0.433 
4 d     -0.142 
5 e     -0.242 

func_dots(df = tib_small, colA, colB, colC)

`summarise()` has grouped output by 'colB'. You can override using the
`.groups` argument.

# A tibble: 25 × 3
# Groups:   colB [5]
   colB  colC      mean
   <chr> <chr>    <dbl>
 1 a     A      0.129  
 2 a     B     -0.357  
 3 a     C     -0.501  
 4 a     D      0.0427 
 5 a     E      0.532  
 6 b     A      0.281  
 7 b     B      0.0848 
 8 b     C     -1.29   
 9 b     D     -1.10   
10 b     E     -0.00374
# ℹ 15 more rows
…
# default NULL field must be specified after multiple argument field

func_vector_parameter(df = tib_small, field1 = colA, vector_args = c("colB", "colC"))

`summarise()` has grouped output by 'colB'. You can override using the
`.groups` argument.

# A tibble: 25 × 3
# Groups:   colB [5]
   colB  colC      mean
   <chr> <chr>    <dbl>
 1 a     A      0.129  
 2 a     B     -0.357  
 3 a     C     -0.501  
 4 a     D      0.0427 
 5 a     E      0.532  
 6 b     A      0.281  
 7 b     B      0.0848 
 8 b     C     -1.29   
 9 b     D     -1.10   
10 b     E     -0.00374
# ℹ 15 more rows

func_vector_parameter(tib_small, colA, c("colB", "colC"))

`summarise()` has grouped output by 'colB'. You can override using the
`.groups` argument.

# A tibble: 25 × 3
# Groups:   colB [5]
   colB  colC      mean
   <chr> <chr>    <dbl>
 1 a     A      0.129  
 2 a     B     -0.357  
 3 a     C     -0.501  
 4 a     D      0.0427 
 5 a     E      0.532  
 6 b     A      0.281  
 7 b     B      0.0848 
 8 b     C     -1.29   
 9 b     D     -1.10   
10 b     E     -0.00374
# ℹ 15 more rows

func_vector_parameter(df = tib_small, vector_args = c("colB", "colC"), field1 = colA)

`summarise()` has grouped output by 'colB'. You can override using the
`.groups` argument.

# A tibble: 25 × 3
# Groups:   colB [5]
   colB  colC      mean
   <chr> <chr>    <dbl>
 1 a     A      0.129  
 2 a     B     -0.357  
 3 a     C     -0.501  
 4 a     D      0.0427 
 5 a     E      0.532  
 6 b     A      0.281  
 7 b     B      0.0848 
 8 b     C     -1.29   
 9 b     D     -1.10   
10 b     E     -0.00374
# ℹ 15 more rows

# Can insert a vector as argument of parameter
v_args <- c("colB", "colC")
func_vector_parameter(df = tib_small, field1 = colA, vector_args = v_args)

`summarise()` has grouped output by 'colB'. You can override using the
`.groups` argument.

# A tibble: 25 × 3
# Groups:   colB [5]
   colB  colC      mean
   <chr> <chr>    <dbl>
 1 a     A      0.129  
 2 a     B     -0.357  
 3 a     C     -0.501  
 4 a     D      0.0427 
 5 a     E      0.532  
 6 b     A      0.281  
 7 b     B      0.0848 
 8 b     C     -1.29   
 9 b     D     -1.10   
10 b     E     -0.00374
# ℹ 15 more rows
